#VRML V2.0 utf8


Group {
  children 
    DEF o0 Group {
      children 
        DEF o1 Group {
          children 
            DEF o2 Transform {
              translation 0 0 0
              rotation 0 0 1  0
              scale 1 1 1
              scaleOrientation 0 0 1  0
              center 0 0 0
              children 
                DEF o3 Group {
                  children [ 
                    DEF o4 Group {
                      children 
                        DEF o5 Shape {
                          appearance 
                          Appearance {
                            material 
                            Material {
                              emissiveColor 0.098039217 0.098039217 0.098039217

                            }

                          }
                          geometry 
                          PointSet {
                            coord 
                            DEF o6 Coordinate {
                              point [ -3.75 -5.1500001 2.6500001,
                                  -3.75 5.1500001 2.6500001,
                                  -3.75 -5.1500001 0,
                                  -3.75 -4.6999998 0,
                                  -3.75 -4.6999998 0.25,
                                  -3.75 -4.1999998 0.25,
                                  -3.75 -4.1999998 0,
                                  -3.75 -3.4300001 0,
                                  -3.75 -3.4300001 0.25,
                                  -3.75 -2.9300001 0.25,
                                  -3.75 -2.9300001 0,
                                  -3.75 -2.1600001 0,
                                  -3.75 -2.1600001 0.25,
                                  -3.75 -1.66 0.25,
                                  -3.75 -1.66 0,
                                  -3.75 -0.88999999 0,
                                  -3.75 -0.88999999 0.25,
                                  -3.75 -0.38999999 0.25,
                                  -3.75 -0.38999999 0,
                                  -3.75 0.38 0,
                                  -3.75 0.38 0.25,
                                  -3.75 0.88 0.25,
                                  -3.75 0.88 0,
                                  -3.75 1.65 0,
                                  -3.75 1.65 0.25,
                                  -3.75 2.1500001 0.25,
                                  -3.75 2.1500001 0,
                                  -3.75 2.9200001 0,
                                  -3.75 2.9200001 0.25,
                                  -3.75 3.4200001 0.25,
                                  -3.75 3.4200001 0,
                                  -3.75 4.1900001 0,
                                  -3.75 4.1900001 0.25,
                                  -3.75 4.6900001 0.25,
                                  -3.75 4.6900001 0,
                                  -3.75 5.1500001 0,
                                  -3.75 -5.1500001 2.6500001,
                                  -3.75 5.1500001 2.6500001,
                                  3.75 -5.1500001 2.6500001,
                                  3.75 5.1500001 2.6500001,
                                  -3.75 5.1500001 0,
                                  3.75 5.1500001 0,
                                  -3.75 5.1500001 2.6500001,
                                  3.75 5.1500001 2.6500001,
                                  -3.75 -5.1500001 0,
                                  -3.75 -4.6999998 0,
                                  3.75 -5.1500001 0,
                                  3.75 -4.6999998 0,
                                  3.75 -4.1999998 0,
                                  3.75 -3.4300001 0,
                                  3.75 -2.9300001 0,
                                  3.75 -2.1600001 0,
                                  3.75 -1.66 0,
                                  3.75 -0.88999999 0,
                                  3.75 -0.38999999 0,
                                  3.75 0.38 0,
                                  3.75 0.88 0,
                                  3.75 1.65 0,
                                  3.75 2.1500001 0,
                                  3.75 2.9200001 0,
                                  3.75 3.4200001 0,
                                  3.75 4.1900001 0,
                                  3.75 4.6900001 0,
                                  3.75 5.1500001 0,
                                  -3.75 5.1500001 0,
                                  -3.75 4.6900001 0,
                                  -3.75 4.1900001 0,
                                  -3.75 3.4200001 0,
                                  -3.75 2.9200001 0,
                                  -3.75 2.1500001 0,
                                  -3.75 1.65 0,
                                  -3.75 0.88 0,
                                  -3.75 0.38 0,
                                  -3.75 -0.38999999 0,
                                  -3.75 -0.88999999 0,
                                  -3.75 -1.66 0,
                                  -3.75 -2.1600001 0,
                                  -3.75 -2.9300001 0,
                                  -3.75 -3.4300001 0,
                                  -3.75 -4.1999998 0,
                                  -5.1500001 4.6900001 0,
                                  -3.75 4.6900001 0,
                                  -5.1500001 4.6900001 0.25,
                                  -3.75 4.6900001 0.25,
                                  -5.1500001 4.1900001 0.25,
                                  -5.1500001 4.6900001 0.25,
                                  -3.75 4.1900001 0.25,
                                  -3.75 4.6900001 0.25,
                                  -5.1500001 4.1900001 0,
                                  -3.75 4.1900001 0,
                                  -5.1500001 4.1900001 0.25,
                                  -3.75 4.1900001 0.25,
                                  -5.1500001 3.4200001 0,
                                  -3.75 3.4200001 0,
                                  -5.1500001 3.4200001 0.25,
                                  -3.75 3.4200001 0.25,
                                  -5.1500001 2.9200001 0.25,
                                  -5.1500001 3.4200001 0.25,
                                  -3.75 2.9200001 0.25,
                                  -3.75 3.4200001 0.25,
                                  -5.1500001 2.9200001 0,
                                  -3.75 2.9200001 0,
                                  -5.1500001 2.9200001 0.25,
                                  -3.75 2.9200001 0.25,
                                  -5.1500001 2.1500001 0,
                                  -3.75 2.1500001 0,
                                  -5.1500001 2.1500001 0.25,
                                  -3.75 2.1500001 0.25,
                                  -5.1500001 1.65 0.25,
                                  -5.1500001 2.1500001 0.25,
                                  -3.75 1.65 0.25,
                                  -3.75 2.1500001 0.25,
                                  -5.1500001 1.65 0,
                                  -3.75 1.65 0,
                                  -5.1500001 1.65 0.25,
                                  -3.75 1.65 0.25,
                                  -5.1500001 0.88 0,
                                  -3.75 0.88 0,
                                  -5.1500001 0.88 0.25,
                                  -3.75 0.88 0.25,
                                  -5.1500001 0.38 0.25,
                                  -5.1500001 0.88 0.25,
                                  -3.75 0.38 0.25,
                                  -3.75 0.88 0.25,
                                  -5.1500001 0.38 0,
                                  -3.75 0.38 0,
                                  -5.1500001 0.38 0.25,
                                  -3.75 0.38 0.25,
                                  -5.1500001 -0.38999999 0,
                                  -3.75 -0.38999999 0,
                                  -5.1500001 -0.38999999 0.25,
                                  -3.75 -0.38999999 0.25,
                                  -5.1500001 -0.88999999 0.25,
                                  -5.1500001 -0.38999999 0.25,
                                  -3.75 -0.88999999 0.25,
                                  -3.75 -0.38999999 0.25,
                                  -5.1500001 -0.88999999 0,
                                  -3.75 -0.88999999 0,
                                  -5.1500001 -0.88999999 0.25,
                                  -3.75 -0.88999999 0.25,
                                  -5.1500001 -1.66 0,
                                  -3.75 -1.66 0,
                                  -5.1500001 -1.66 0.25,
                                  -3.75 -1.66 0.25,
                                  -5.1500001 -2.1600001 0.25,
                                  -5.1500001 -1.66 0.25,
                                  -3.75 -2.1600001 0.25,
                                  -3.75 -1.66 0.25,
                                  -5.1500001 -2.1600001 0,
                                  -3.75 -2.1600001 0,
                                  -5.1500001 -2.1600001 0.25,
                                  -3.75 -2.1600001 0.25,
                                  -5.1500001 -2.9300001 0,
                                  -3.75 -2.9300001 0,
                                  -5.1500001 -2.9300001 0.25,
                                  -3.75 -2.9300001 0.25,
                                  -5.1500001 -3.4300001 0.25,
                                  -5.1500001 -2.9300001 0.25,
                                  -3.75 -3.4300001 0.25,
                                  -3.75 -2.9300001 0.25,
                                  -5.1500001 -3.4300001 0,
                                  -3.75 -3.4300001 0,
                                  -5.1500001 -3.4300001 0.25,
                                  -3.75 -3.4300001 0.25,
                                  -5.1500001 -4.1999998 0,
                                  -3.75 -4.1999998 0,
                                  -5.1500001 -4.1999998 0.25,
                                  -3.75 -4.1999998 0.25,
                                  -5.1500001 -4.6999998 0.25,
                                  -5.1500001 -4.1999998 0.25,
                                  -3.75 -4.6999998 0.25,
                                  -3.75 -4.1999998 0.25,
                                  -5.1500001 -4.6999998 0,
                                  -3.75 -4.6999998 0,
                                  -5.1500001 -4.6999998 0.25,
                                  -3.75 -4.6999998 0.25,
                                  -3.75 -5.1500001 0,
                                  3.75 -5.1500001 0,
                                  -3.75 -5.1500001 2.6500001,
                                  3.75 -5.1500001 2.6500001,
                                  3.75 -5.1500001 2.6500001,
                                  3.75 5.1500001 2.6500001,
                                  3.75 -5.1500001 0,
                                  3.75 -4.6999998 0,
                                  3.75 -4.6999998 0.25,
                                  3.75 -4.1999998 0.25,
                                  3.75 -4.1999998 0,
                                  3.75 -3.4300001 0,
                                  3.75 -3.4300001 0.25,
                                  3.75 -2.9300001 0.25,
                                  3.75 -2.9300001 0,
                                  3.75 -2.1600001 0,
                                  3.75 -2.1600001 0.25,
                                  3.75 -1.66 0.25,
                                  3.75 -1.66 0,
                                  3.75 -0.88999999 0,
                                  3.75 -0.88999999 0.25,
                                  3.75 -0.38999999 0.25,
                                  3.75 -0.38999999 0,
                                  3.75 0.38 0,
                                  3.75 0.38 0.25,
                                  3.75 0.88 0.25,
                                  3.75 0.88 0,
                                  3.75 1.65 0,
                                  3.75 1.65 0.25,
                                  3.75 2.1500001 0.25,
                                  3.75 2.1500001 0,
                                  3.75 2.9200001 0,
                                  3.75 2.9200001 0.25,
                                  3.75 3.4200001 0.25,
                                  3.75 3.4200001 0,
                                  3.75 4.1900001 0,
                                  3.75 4.1900001 0.25,
                                  3.75 4.6900001 0.25,
                                  3.75 4.6900001 0,
                                  3.75 5.1500001 0,
                                  -5.1500001 -4.6999998 0,
                                  -5.1500001 -4.1999998 0,
                                  -3.75 -4.6999998 0,
                                  -3.75 -4.1999998 0,
                                  -5.1500001 -3.4300001 0,
                                  -5.1500001 -2.9300001 0,
                                  -3.75 -3.4300001 0,
                                  -3.75 -2.9300001 0,
                                  -5.1500001 -2.1600001 0,
                                  -5.1500001 -1.66 0,
                                  -3.75 -2.1600001 0,
                                  -3.75 -1.66 0,
                                  -5.1500001 -0.88999999 0,
                                  -5.1500001 -0.38999999 0,
                                  -3.75 -0.88999999 0,
                                  -3.75 -0.38999999 0,
                                  -5.1500001 0.38 0,
                                  -5.1500001 0.88 0,
                                  -3.75 0.38 0,
                                  -3.75 0.88 0,
                                  -5.1500001 1.65 0,
                                  -5.1500001 2.1500001 0,
                                  -3.75 1.65 0,
                                  -3.75 2.1500001 0,
                                  -5.1500001 2.9200001 0,
                                  -5.1500001 3.4200001 0,
                                  -3.75 2.9200001 0,
                                  -3.75 3.4200001 0,
                                  -5.1500001 4.1900001 0,
                                  -5.1500001 4.6900001 0,
                                  -3.75 4.1900001 0,
                                  -3.75 4.6900001 0,
                                  3.75 -4.6999998 0,
                                  3.75 -4.1999998 0,
                                  5.1500001 -4.6999998 0,
                                  5.1500001 -4.1999998 0,
                                  3.75 -3.4300001 0,
                                  3.75 -2.9300001 0,
                                  5.1500001 -3.4300001 0,
                                  5.1500001 -2.9300001 0,
                                  3.75 -2.1600001 0,
                                  3.75 -1.66 0,
                                  5.1500001 -2.1600001 0,
                                  5.1500001 -1.66 0,
                                  3.75 -0.88999999 0,
                                  3.75 -0.38999999 0,
                                  5.1500001 -0.88999999 0,
                                  5.1500001 -0.38999999 0,
                                  3.75 0.38 0,
                                  3.75 0.88 0,
                                  5.1500001 0.38 0,
                                  5.1500001 0.88 0,
                                  3.75 1.65 0,
                                  3.75 2.1500001 0,
                                  5.1500001 1.65 0,
                                  5.1500001 2.1500001 0,
                                  3.75 2.9200001 0,
                                  3.75 3.4200001 0,
                                  5.1500001 2.9200001 0,
                                  5.1500001 3.4200001 0,
                                  3.75 4.1900001 0,
                                  3.75 4.6900001 0,
                                  5.1500001 4.1900001 0,
                                  5.1500001 4.6900001 0,
                                  -5.1500001 4.1900001 0,
                                  -5.1500001 4.1900001 0.25,
                                  -5.1500001 4.6900001 0,
                                  -5.1500001 4.6900001 0.25,
                                  -5.1500001 2.9200001 0,
                                  -5.1500001 2.9200001 0.25,
                                  -5.1500001 3.4200001 0,
                                  -5.1500001 3.4200001 0.25,
                                  -5.1500001 1.65 0,
                                  -5.1500001 1.65 0.25,
                                  -5.1500001 2.1500001 0,
                                  -5.1500001 2.1500001 0.25,
                                  -5.1500001 0.38 0,
                                  -5.1500001 0.38 0.25,
                                  -5.1500001 0.88 0,
                                  -5.1500001 0.88 0.25,
                                  -5.1500001 -0.88999999 0,
                                  -5.1500001 -0.88999999 0.25,
                                  -5.1500001 -0.38999999 0,
                                  -5.1500001 -0.38999999 0.25,
                                  -5.1500001 -2.1600001 0,
                                  -5.1500001 -2.1600001 0.25,
                                  -5.1500001 -1.66 0,
                                  -5.1500001 -1.66 0.25,
                                  -5.1500001 -3.4300001 0,
                                  -5.1500001 -3.4300001 0.25,
                                  -5.1500001 -2.9300001 0,
                                  -5.1500001 -2.9300001 0.25,
                                  -5.1500001 -4.6999998 0,
                                  -5.1500001 -4.6999998 0.25,
                                  -5.1500001 -4.1999998 0,
                                  -5.1500001 -4.1999998 0.25,
                                  3.75 4.6900001 0,
                                  5.1500001 4.6900001 0,
                                  3.75 4.6900001 0.25,
                                  5.1500001 4.6900001 0.25,
                                  3.75 4.1900001 0.25,
                                  3.75 4.6900001 0.25,
                                  5.1500001 4.1900001 0.25,
                                  5.1500001 4.6900001 0.25,
                                  3.75 4.1900001 0,
                                  5.1500001 4.1900001 0,
                                  3.75 4.1900001 0.25,
                                  5.1500001 4.1900001 0.25,
                                  3.75 3.4200001 0,
                                  5.1500001 3.4200001 0,
                                  3.75 3.4200001 0.25,
                                  5.1500001 3.4200001 0.25,
                                  3.75 2.9200001 0.25,
                                  3.75 3.4200001 0.25,
                                  5.1500001 2.9200001 0.25,
                                  5.1500001 3.4200001 0.25,
                                  3.75 2.9200001 0,
                                  5.1500001 2.9200001 0,
                                  3.75 2.9200001 0.25,
                                  5.1500001 2.9200001 0.25,
                                  3.75 2.1500001 0,
                                  5.1500001 2.1500001 0,
                                  3.75 2.1500001 0.25,
                                  5.1500001 2.1500001 0.25,
                                  3.75 1.65 0.25,
                                  3.75 2.1500001 0.25,
                                  5.1500001 1.65 0.25,
                                  5.1500001 2.1500001 0.25,
                                  3.75 1.65 0,
                                  5.1500001 1.65 0,
                                  3.75 1.65 0.25,
                                  5.1500001 1.65 0.25,
                                  3.75 0.88 0,
                                  5.1500001 0.88 0,
                                  3.75 0.88 0.25,
                                  5.1500001 0.88 0.25,
                                  3.75 0.38 0.25,
                                  3.75 0.88 0.25,
                                  5.1500001 0.38 0.25,
                                  5.1500001 0.88 0.25,
                                  3.75 0.38 0,
                                  5.1500001 0.38 0,
                                  3.75 0.38 0.25,
                                  5.1500001 0.38 0.25,
                                  3.75 -0.38999999 0,
                                  5.1500001 -0.38999999 0,
                                  3.75 -0.38999999 0.25,
                                  5.1500001 -0.38999999 0.25,
                                  3.75 -0.88999999 0.25,
                                  3.75 -0.38999999 0.25,
                                  5.1500001 -0.88999999 0.25,
                                  5.1500001 -0.38999999 0.25,
                                  3.75 -0.88999999 0,
                                  5.1500001 -0.88999999 0,
                                  3.75 -0.88999999 0.25,
                                  5.1500001 -0.88999999 0.25,
                                  3.75 -1.66 0,
                                  5.1500001 -1.66 0,
                                  3.75 -1.66 0.25,
                                  5.1500001 -1.66 0.25,
                                  3.75 -2.1600001 0.25,
                                  3.75 -1.66 0.25,
                                  5.1500001 -2.1600001 0.25,
                                  5.1500001 -1.66 0.25,
                                  3.75 -2.1600001 0,
                                  5.1500001 -2.1600001 0,
                                  3.75 -2.1600001 0.25,
                                  5.1500001 -2.1600001 0.25,
                                  3.75 -2.9300001 0,
                                  5.1500001 -2.9300001 0,
                                  3.75 -2.9300001 0.25,
                                  5.1500001 -2.9300001 0.25,
                                  3.75 -3.4300001 0.25,
                                  3.75 -2.9300001 0.25,
                                  5.1500001 -3.4300001 0.25,
                                  5.1500001 -2.9300001 0.25,
                                  3.75 -3.4300001 0,
                                  5.1500001 -3.4300001 0,
                                  3.75 -3.4300001 0.25,
                                  5.1500001 -3.4300001 0.25,
                                  3.75 -4.1999998 0,
                                  5.1500001 -4.1999998 0,
                                  3.75 -4.1999998 0.25,
                                  5.1500001 -4.1999998 0.25,
                                  3.75 -4.6999998 0.25,
                                  3.75 -4.1999998 0.25,
                                  5.1500001 -4.6999998 0.25,
                                  5.1500001 -4.1999998 0.25,
                                  3.75 -4.6999998 0,
                                  5.1500001 -4.6999998 0,
                                  3.75 -4.6999998 0.25,
                                  5.1500001 -4.6999998 0.25,
                                  5.1500001 -4.6999998 0,
                                  5.1500001 -4.6999998 0.25,
                                  5.1500001 -4.1999998 0,
                                  5.1500001 -4.1999998 0.25,
                                  5.1500001 -3.4300001 0,
                                  5.1500001 -3.4300001 0.25,
                                  5.1500001 -2.9300001 0,
                                  5.1500001 -2.9300001 0.25,
                                  5.1500001 -2.1600001 0,
                                  5.1500001 -2.1600001 0.25,
                                  5.1500001 -1.66 0,
                                  5.1500001 -1.66 0.25,
                                  5.1500001 -0.88999999 0,
                                  5.1500001 -0.88999999 0.25,
                                  5.1500001 -0.38999999 0,
                                  5.1500001 -0.38999999 0.25,
                                  5.1500001 0.38 0,
                                  5.1500001 0.38 0.25,
                                  5.1500001 0.88 0,
                                  5.1500001 0.88 0.25,
                                  5.1500001 1.65 0,
                                  5.1500001 1.65 0.25,
                                  5.1500001 2.1500001 0,
                                  5.1500001 2.1500001 0.25,
                                  5.1500001 2.9200001 0,
                                  5.1500001 2.9200001 0.25,
                                  5.1500001 3.4200001 0,
                                  5.1500001 3.4200001 0.25,
                                  5.1500001 4.1900001 0,
                                  5.1500001 4.1900001 0.25,
                                  5.1500001 4.6900001 0,
                                  5.1500001 4.6900001 0.25,
                                  -3.75 5.1500001 2.6500001,
                                  -3.75 -5.1500001 2.6500001,
                                  -3.75 5.1500001 0,
                                  -3.75 4.6900001 0,
                                  -3.75 4.6900001 0.25,
                                  -3.75 4.1900001 0.25,
                                  -3.75 4.1900001 0,
                                  -3.75 3.4200001 0,
                                  -3.75 3.4200001 0.25,
                                  -3.75 2.9200001 0.25,
                                  -3.75 2.9200001 0,
                                  -3.75 2.1500001 0,
                                  -3.75 2.1500001 0.25,
                                  -3.75 1.65 0.25,
                                  -3.75 1.65 0,
                                  -3.75 0.88 0,
                                  -3.75 0.88 0.25,
                                  -3.75 0.38 0.25,
                                  -3.75 0.38 0,
                                  -3.75 -0.38999999 0,
                                  -3.75 -0.38999999 0.25,
                                  -3.75 -0.88999999 0.25,
                                  -3.75 -0.88999999 0,
                                  -3.75 -1.66 0,
                                  -3.75 -1.66 0.25,
                                  -3.75 -2.1600001 0.25,
                                  -3.75 -2.1600001 0,
                                  -3.75 -2.9300001 0,
                                  -3.75 -2.9300001 0.25,
                                  -3.75 -3.4300001 0.25,
                                  -3.75 -3.4300001 0,
                                  -3.75 -4.1999998 0,
                                  -3.75 -4.1999998 0.25,
                                  -3.75 -4.6999998 0.25,
                                  -3.75 -4.6999998 0,
                                  -3.75 -5.1500001 0,
                                  3.75 5.1500001 2.6500001,
                                  3.75 -5.1500001 2.6500001,
                                  3.75 5.1500001 0,
                                  3.75 -5.1500001 0,
                                  3.75 -4.6999998 0,
                                  3.75 -4.1999998 0,
                                  3.75 -3.4300001 0,
                                  3.75 -2.9300001 0,
                                  3.75 -2.1600001 0,
                                  3.75 -1.66 0,
                                  3.75 -0.88999999 0,
                                  3.75 -0.38999999 0,
                                  3.75 0.38 0,
                                  3.75 0.88 0,
                                  3.75 1.65 0,
                                  3.75 2.1500001 0,
                                  3.75 2.9200001 0,
                                  3.75 3.4200001 0,
                                  3.75 4.1900001 0,
                                  3.75 4.6900001 0,
                                  -5.1500001 4.6900001 0,
                                  -5.1500001 4.6900001 0.25,
                                  -5.1500001 4.1900001 0.25,
                                  -5.1500001 4.1900001 0,
                                  -5.1500001 3.4200001 0,
                                  -5.1500001 3.4200001 0.25,
                                  -5.1500001 2.9200001 0.25,
                                  -5.1500001 2.9200001 0,
                                  -5.1500001 2.1500001 0,
                                  -5.1500001 2.1500001 0.25,
                                  -5.1500001 1.65 0.25,
                                  -5.1500001 1.65 0,
                                  -5.1500001 0.88 0,
                                  -5.1500001 0.88 0.25,
                                  -5.1500001 0.38 0.25,
                                  -5.1500001 0.38 0,
                                  -5.1500001 -0.38999999 0,
                                  -5.1500001 -0.38999999 0.25,
                                  -5.1500001 -0.88999999 0.25,
                                  -5.1500001 -0.88999999 0,
                                  -5.1500001 -1.66 0,
                                  -5.1500001 -1.66 0.25,
                                  -5.1500001 -2.1600001 0.25,
                                  -5.1500001 -2.1600001 0,
                                  -5.1500001 -2.9300001 0,
                                  -5.1500001 -2.9300001 0.25,
                                  -5.1500001 -3.4300001 0.25,
                                  -5.1500001 -3.4300001 0,
                                  -5.1500001 -4.1999998 0,
                                  -5.1500001 -4.1999998 0.25,
                                  -5.1500001 -4.6999998 0.25,
                                  -5.1500001 -4.6999998 0,
                                  3.75 4.6900001 0.25,
                                  3.75 4.1900001 0.25,
                                  3.75 3.4200001 0.25,
                                  3.75 2.9200001 0.25,
                                  3.75 2.1500001 0.25,
                                  3.75 1.65 0.25,
                                  3.75 0.88 0.25,
                                  3.75 0.38 0.25,
                                  3.75 -0.38999999 0.25,
                                  3.75 -0.88999999 0.25,
                                  3.75 -1.66 0.25,
                                  3.75 -2.1600001 0.25,
                                  3.75 -2.9300001 0.25,
                                  3.75 -3.4300001 0.25,
                                  3.75 -4.1999998 0.25,
                                  3.75 -4.6999998 0.25,
                                  5.1500001 -4.1999998 0,
                                  5.1500001 -4.6999998 0,
                                  5.1500001 -2.9300001 0,
                                  5.1500001 -3.4300001 0,
                                  5.1500001 -1.66 0,
                                  5.1500001 -2.1600001 0,
                                  5.1500001 -0.38999999 0,
                                  5.1500001 -0.88999999 0,
                                  5.1500001 0.88 0,
                                  5.1500001 0.38 0,
                                  5.1500001 2.1500001 0,
                                  5.1500001 1.65 0,
                                  5.1500001 3.4200001 0,
                                  5.1500001 2.9200001 0,
                                  5.1500001 4.6900001 0,
                                  5.1500001 4.1900001 0,
                                  5.1500001 4.6900001 0.25,
                                  5.1500001 4.1900001 0.25,
                                  5.1500001 3.4200001 0.25,
                                  5.1500001 2.9200001 0.25,
                                  5.1500001 2.1500001 0.25,
                                  5.1500001 1.65 0.25,
                                  5.1500001 0.88 0.25,
                                  5.1500001 0.38 0.25,
                                  5.1500001 -0.38999999 0.25,
                                  5.1500001 -0.88999999 0.25,
                                  5.1500001 -1.66 0.25,
                                  5.1500001 -2.1600001 0.25,
                                  5.1500001 -2.9300001 0.25,
                                  5.1500001 -3.4300001 0.25,
                                  5.1500001 -4.1999998 0.25,
                                  5.1500001 -4.6999998 0.25 ]

                            }

                          }

                        }

                    },
                      
                    DEF o7 Group {
                      children 
                        DEF o8 Shape {
                          appearance 
                          Appearance {
                            material 
                            Material {
                              diffuseColor 0.098039217 0.098039217 0.098039217
                              shininess 1

                            }

                          }
                          geometry 
                          IndexedLineSet {
                            coord 
                            USE o6
                            coordIndex [ 0, 1, -1, 35, 1, -1, 34, 35,
                                -1, 34, 33, -1, 32, 33, -1, 31,
                                32, -1, 30, 31, -1, 30, 29, -1,
                                28, 29, -1, 27, 28, -1, 26, 27,
                                -1, 26, 25, -1, 24, 25, -1, 23,
                                24, -1, 22, 23, -1, 22, 21, -1,
                                20, 21, -1, 19, 20, -1, 18, 19,
                                -1, 18, 17, -1, 16, 17, -1, 15,
                                16, -1, 14, 15, -1, 14, 13, -1,
                                12, 13, -1, 11, 12, -1, 10, 11,
                                -1, 10, 9, -1, 8, 9, -1, 7,
                                8, -1, 6, 7, -1, 6, 5, -1,
                                4, 5, -1, 3, 4, -1, 2, 3,
                                -1, 2, 0, -1, 37, 39, -1, 38,
                                39, -1, 36, 38, -1, 40, 41, -1,
                                41, 43, -1, 45, 79, -1, 78, 77,
                                -1, 76, 75, -1, 74, 73, -1, 72,
                                71, -1, 70, 69, -1, 68, 67, -1,
                                66, 65, -1, 46, 47, -1, 47, 48,
                                -1, 48, 49, -1, 49, 50, -1, 50,
                                51, -1, 51, 52, -1, 52, 53, -1,
                                53, 54, -1, 54, 55, -1, 55, 56,
                                -1, 56, 57, -1, 57, 58, -1, 58,
                                59, -1, 59, 60, -1, 60, 61, -1,
                                61, 62, -1, 62, 63, -1, 44, 46,
                                -1, 80, 81, -1, 82, 83, -1, 80,
                                82, -1, 84, 85, -1, 84, 86, -1,
                                88, 89, -1, 88, 90, -1, 92, 93,
                                -1, 94, 95, -1, 92, 94, -1, 96,
                                97, -1, 96, 98, -1, 100, 101, -1,
                                100, 102, -1, 104, 105, -1, 106, 107,
                                -1, 104, 106, -1, 108, 109, -1, 108,
                                110, -1, 112, 113, -1, 112, 114, -1,
                                116, 117, -1, 118, 119, -1, 116, 118,
                                -1, 120, 121, -1, 120, 122, -1, 124,
                                125, -1, 124, 126, -1, 128, 129, -1,
                                130, 131, -1, 128, 130, -1, 132, 133,
                                -1, 132, 134, -1, 136, 137, -1, 136,
                                138, -1, 140, 141, -1, 142, 143, -1,
                                140, 142, -1, 144, 145, -1, 144, 146,
                                -1, 148, 149, -1, 148, 150, -1, 152,
                                153, -1, 154, 155, -1, 152, 154, -1,
                                156, 157, -1, 156, 158, -1, 160, 161,
                                -1, 160, 162, -1, 164, 165, -1, 166,
                                167, -1, 164, 166, -1, 168, 169, -1,
                                168, 170, -1, 172, 173, -1, 172, 174,
                                -1, 177, 179, -1, 214, 213, -1, 212,
                                213, -1, 211, 212, -1, 210, 209, -1,
                                208, 209, -1, 207, 208, -1, 206, 205,
                                -1, 204, 205, -1, 203, 204, -1, 202,
                                201, -1, 200, 201, -1, 199, 200, -1,
                                198, 197, -1, 196, 197, -1, 195, 196,
                                -1, 194, 193, -1, 192, 193, -1, 191,
                                192, -1, 190, 189, -1, 188, 189, -1,
                                187, 188, -1, 186, 185, -1, 184, 185,
                                -1, 183, 184, -1, 216, 217, -1, 220,
                                221, -1, 224, 225, -1, 228, 229, -1,
                                232, 233, -1, 236, 237, -1, 240, 241,
                                -1, 244, 245, -1, 249, 251, -1, 250,
                                251, -1, 248, 250, -1, 253, 255, -1,
                                254, 255, -1, 252, 254, -1, 257, 259,
                                -1, 258, 259, -1, 256, 258, -1, 261,
                                263, -1, 262, 263, -1, 260, 262, -1,
                                265, 267, -1, 266, 267, -1, 264, 266,
                                -1, 269, 271, -1, 270, 271, -1, 268,
                                270, -1, 273, 275, -1, 274, 275, -1,
                                272, 274, -1, 277, 279, -1, 278, 279,
                                -1, 276, 278, -1, 313, 315, -1, 314,
                                315, -1, 318, 319, -1, 316, 318, -1,
                                321, 323, -1, 325, 327, -1, 326, 327,
                                -1, 330, 331, -1, 328, 330, -1, 333,
                                335, -1, 337, 339, -1, 338, 339, -1,
                                342, 343, -1, 340, 342, -1, 345, 347,
                                -1, 349, 351, -1, 350, 351, -1, 354,
                                355, -1, 352, 354, -1, 357, 359, -1,
                                361, 363, -1, 362, 363, -1, 366, 367,
                                -1, 364, 366, -1, 369, 371, -1, 373,
                                375, -1, 374, 375, -1, 378, 379, -1,
                                376, 378, -1, 381, 383, -1, 385, 387,
                                -1, 386, 387, -1, 390, 391, -1, 388,
                                390, -1, 393, 395, -1, 397, 399, -1,
                                398, 399, -1, 402, 403, -1, 400, 402,
                                -1, 405, 407, -1 ]

                          }

                        }

                    },
                      
                    DEF o9 Group {
                      children 
                        DEF o10 Shape {
                          appearance 
                          Appearance {
                            material 
                            Material {
                              diffuseColor 0 0 0

                            }

                          }
                          geometry 
                          IndexedFaceSet {
                            coord 
                            USE o6
                            color 
                            Color {
                              color [ 0 0 0,
                                  0 0 0,
                                  0 0 0,
                                  0 0 0,
                                  0.50196099 0.50196099 0.50196099,
                                  0.50196099 0.50196099 0.50196099,
                                  0.50196099 0.50196099 0.50196099,
                                  0.50196099 0.50196099 0.50196099,
                                  0.50196099 0.50196099 0.50196099,
                                  0.50196099 0.50196099 0.50196099,
                                  0.50196099 0.50196099 0.50196099,
                                  0.50196099 0.50196099 0.50196099,
                                  0.50196099 0.50196099 0.50196099,
                                  0.50196099 0.50196099 0.50196099,
                                  0.50196099 0.50196099 0.50196099,
                                  0.50196099 0.50196099 0.50196099,
                                  0.50196099 0.50196099 0.50196099,
                                  0.50196099 0.50196099 0.50196099,
                                  0.50196099 0.50196099 0.50196099,
                                  0.50196099 0.50196099 0.50196099,
                                  0.50196099 0.50196099 0.50196099,
                                  0.50196099 0.50196099 0.50196099,
                                  0.50196099 0.50196099 0.50196099,
                                  0.50196099 0.50196099 0.50196099,
                                  0.50196099 0.50196099 0.50196099,
                                  0.50196099 0.50196099 0.50196099,
                                  0.50196099 0.50196099 0.50196099,
                                  0.50196099 0.50196099 0.50196099,
                                  0 0 0,
                                  0 0 0,
                                  0.50196099 0.50196099 0.50196099,
                                  0.50196099 0.50196099 0.50196099,
                                  0.50196099 0.50196099 0.50196099,
                                  0.50196099 0.50196099 0.50196099,
                                  0.50196099 0.50196099 0.50196099,
                                  0.50196099 0.50196099 0.50196099,
                                  0.50196099 0.50196099 0.50196099,
                                  0.50196099 0.50196099 0.50196099,
                                  0.50196099 0.50196099 0.50196099,
                                  0.50196099 0.50196099 0.50196099,
                                  0.50196099 0.50196099 0.50196099,
                                  0.50196099 0.50196099 0.50196099,
                                  0.50196099 0.50196099 0.50196099,
                                  0.50196099 0.50196099 0.50196099,
                                  0.50196099 0.50196099 0.50196099,
                                  0.50196099 0.50196099 0.50196099,
                                  0.50196099 0.50196099 0.50196099,
                                  0.50196099 0.50196099 0.50196099,
                                  0.50196099 0.50196099 0.50196099,
                                  0.50196099 0.50196099 0.50196099,
                                  0.50196099 0.50196099 0.50196099,
                                  0.50196099 0.50196099 0.50196099,
                                  0.50196099 0.50196099 0.50196099,
                                  0.50196099 0.50196099 0.50196099,
                                  0.50196099 0.50196099 0.50196099,
                                  0.50196099 0.50196099 0.50196099,
                                  0.50196099 0.50196099 0.50196099,
                                  0.50196099 0.50196099 0.50196099,
                                  0.50196099 0.50196099 0.50196099,
                                  0.50196099 0.50196099 0.50196099,
                                  0.50196099 0.50196099 0.50196099,
                                  0.50196099 0.50196099 0.50196099,
                                  0.50196099 0.50196099 0.50196099,
                                  0.50196099 0.50196099 0.50196099,
                                  0.50196099 0.50196099 0.50196099,
                                  0.50196099 0.50196099 0.50196099,
                                  0.50196099 0.50196099 0.50196099,
                                  0.50196099 0.50196099 0.50196099,
                                  0.50196099 0.50196099 0.50196099,
                                  0.50196099 0.50196099 0.50196099,
                                  0.50196099 0.50196099 0.50196099,
                                  0.50196099 0.50196099 0.50196099,
                                  0.50196099 0.50196099 0.50196099,
                                  0.50196099 0.50196099 0.50196099,
                                  0.50196099 0.50196099 0.50196099,
                                  0.50196099 0.50196099 0.50196099,
                                  0.50196099 0.50196099 0.50196099,
                                  0.50196099 0.50196099 0.50196099,
                                  0.50196099 0.50196099 0.50196099,
                                  0.50196099 0.50196099 0.50196099,
                                  0.50196099 0.50196099 0.50196099,
                                  0.50196099 0.50196099 0.50196099,
                                  0.50196099 0.50196099 0.50196099,
                                  0.50196099 0.50196099 0.50196099,
                                  0.50196099 0.50196099 0.50196099,
                                  0.50196099 0.50196099 0.50196099 ]

                            }
                            colorPerVertex FALSE
                            coordIndex [ 34, 33, 35, -1, 30, 29, 31, -1,
                                31, 29, 32, -1, 28, 1, 29, -1,
                                32, 1, 33, -1, 33, 1, 35, -1,
                                29, 1, 32, -1, 26, 25, 27, -1,
                                27, 25, 28, -1, 28, 25, 1, -1,
                                25, 24, 1, -1, 22, 21, 23, -1,
                                23, 21, 24, -1, 24, 21, 1, -1,
                                21, 20, 1, -1, 18, 17, 19, -1,
                                19, 17, 20, -1, 15, 14, 16, -1,
                                14, 13, 16, -1, 11, 10, 12, -1,
                                10, 9, 12, -1, 6, 5, 7, -1,
                                7, 5, 8, -1, 3, 2, 4, -1,
                                5, 0, 8, -1, 4, 0, 5, -1,
                                2, 0, 4, -1, 8, 0, 9, -1,
                                12, 0, 13, -1, 16, 0, 17, -1,
                                17, 0, 20, -1, 20, 0, 1, -1,
                                13, 0, 16, -1, 9, 0, 12, -1,
                                39, 37, 36, -1, 39, 36, 38, -1,
                                43, 41, 40, -1, 43, 40, 42, -1,
                                45, 47, 44, -1, 44, 47, 46, -1,
                                79, 48, 45, -1, 45, 48, 47, -1,
                                78, 49, 79, -1, 79, 49, 48, -1,
                                76, 50, 77, -1, 77, 50, 78, -1,
                                78, 50, 49, -1, 76, 51, 50, -1,
                                75, 52, 76, -1, 76, 52, 51, -1,
                                74, 53, 75, -1, 75, 53, 52, -1,
                                73, 54, 74, -1, 74, 54, 53, -1,
                                72, 55, 73, -1, 73, 55, 54, -1,
                                70, 56, 71, -1, 71, 56, 72, -1,
                                72, 56, 55, -1, 70, 57, 56, -1,
                                68, 58, 69, -1, 69, 58, 70, -1,
                                70, 58, 57, -1, 68, 59, 58, -1,
                                68, 60, 59, -1, 66, 60, 67, -1,
                                67, 60, 68, -1, 66, 61, 60, -1,
                                66, 62, 61, -1, 64, 62, 65, -1,
                                65, 62, 66, -1, 64, 63, 62, -1,
                                83, 81, 80, -1, 83, 80, 82, -1,
                                87, 85, 84, -1, 87, 84, 86, -1,
                                89, 91, 88, -1, 88, 91, 90, -1,
                                95, 93, 92, -1, 95, 92, 94, -1,
                                99, 97, 96, -1, 99, 96, 98, -1,
                                101, 103, 100, -1, 100, 103, 102, -1,
                                107, 105, 104, -1, 107, 104, 106, -1,
                                111, 109, 108, -1, 111, 108, 110, -1,
                                113, 115, 112, -1, 112, 115, 114, -1,
                                119, 117, 116, -1, 119, 116, 118, -1,
                                123, 121, 120, -1, 123, 120, 122, -1,
                                125, 127, 124, -1, 124, 127, 126, -1,
                                131, 129, 128, -1, 131, 128, 130, -1,
                                135, 133, 132, -1, 135, 132, 134, -1,
                                137, 139, 136, -1, 136, 139, 138, -1,
                                143, 141, 140, -1, 143, 140, 142, -1,
                                147, 145, 144, -1, 147, 144, 146, -1,
                                149, 151, 148, -1, 148, 151, 150, -1,
                                155, 153, 152, -1, 155, 152, 154, -1,
                                159, 157, 156, -1, 159, 156, 158, -1,
                                161, 163, 160, -1, 160, 163, 162, -1,
                                167, 165, 164, -1, 167, 164, 166, -1,
                                171, 169, 168, -1, 171, 168, 170, -1,
                                173, 175, 172, -1, 172, 175, 174, -1,
                                177, 179, 176, -1, 176, 179, 178, -1,
                                213, 214, 215, -1, 209, 210, 211, -1,
                                209, 211, 212, -1, 181, 208, 209, -1,
                                181, 212, 213, -1, 181, 213, 215, -1,
                                181, 209, 212, -1, 205, 206, 207, -1,
                                205, 207, 208, -1, 205, 208, 181, -1,
                                204, 205, 181, -1, 201, 202, 203, -1,
                                201, 203, 204, -1, 201, 204, 181, -1,
                                200, 201, 181, -1, 197, 198, 199, -1,
                                197, 199, 200, -1, 194, 195, 196, -1,
                                193, 194, 196, -1, 190, 191, 192, -1,
                                189, 190, 192, -1, 185, 186, 187, -1,
                                185, 187, 188, -1, 182, 183, 184, -1,
                                180, 185, 188, -1, 180, 184, 185, -1,
                                180, 182, 184, -1, 180, 188, 189, -1,
                                180, 192, 193, -1, 180, 196, 197, -1,
                                180, 197, 200, -1, 180, 200, 181, -1,
                                180, 193, 196, -1, 180, 189, 192, -1,
                                217, 219, 216, -1, 216, 219, 218, -1,
                                221, 223, 220, -1, 220, 223, 222, -1,
                                225, 227, 224, -1, 224, 227, 226, -1,
                                229, 231, 228, -1, 228, 231, 230, -1,
                                233, 235, 232, -1, 232, 235, 234, -1,
                                237, 239, 236, -1, 236, 239, 238, -1,
                                241, 243, 240, -1, 240, 243, 242, -1,
                                245, 247, 244, -1, 244, 247, 246, -1,
                                249, 251, 248, -1, 248, 251, 250, -1,
                                253, 255, 252, -1, 252, 255, 254, -1,
                                257, 259, 256, -1, 256, 259, 258, -1,
                                261, 263, 260, -1, 260, 263, 262, -1,
                                265, 267, 264, -1, 264, 267, 266, -1,
                                269, 271, 268, -1, 268, 271, 270, -1,
                                273, 275, 272, -1, 272, 275, 274, -1,
                                277, 279, 276, -1, 276, 279, 278, -1,
                                280, 281, 282, -1, 282, 281, 283, -1,
                                284, 285, 286, -1, 286, 285, 287, -1,
                                288, 289, 290, -1, 290, 289, 291, -1,
                                292, 293, 294, -1, 294, 293, 295, -1,
                                296, 297, 298, -1, 298, 297, 299, -1,
                                300, 301, 302, -1, 302, 301, 303, -1,
                                304, 305, 306, -1, 306, 305, 307, -1,
                                308, 309, 310, -1, 310, 309, 311, -1,
                                315, 313, 312, -1, 315, 312, 314, -1,
                                319, 317, 316, -1, 319, 316, 318, -1,
                                321, 323, 320, -1, 320, 323, 322, -1,
                                327, 325, 324, -1, 327, 324, 326, -1,
                                331, 329, 328, -1, 331, 328, 330, -1,
                                333, 335, 332, -1, 332, 335, 334, -1,
                                339, 337, 336, -1, 339, 336, 338, -1,
                                343, 341, 340, -1, 343, 340, 342, -1,
                                345, 347, 344, -1, 344, 347, 346, -1,
                                351, 349, 348, -1, 351, 348, 350, -1,
                                355, 353, 352, -1, 355, 352, 354, -1,
                                357, 359, 356, -1, 356, 359, 358, -1,
                                363, 361, 360, -1, 363, 360, 362, -1,
                                367, 365, 364, -1, 367, 364, 366, -1,
                                369, 371, 368, -1, 368, 371, 370, -1,
                                375, 373, 372, -1, 375, 372, 374, -1,
                                379, 377, 376, -1, 379, 376, 378, -1,
                                381, 383, 380, -1, 380, 383, 382, -1,
                                387, 385, 384, -1, 387, 384, 386, -1,
                                391, 389, 388, -1, 391, 388, 390, -1,
                                393, 395, 392, -1, 392, 395, 394, -1,
                                399, 397, 396, -1, 399, 396, 398, -1,
                                403, 401, 400, -1, 403, 400, 402, -1,
                                405, 407, 404, -1, 404, 407, 406, -1,
                                409, 408, 410, -1, 409, 410, 411, -1,
                                413, 412, 414, -1, 413, 414, 415, -1,
                                417, 416, 418, -1, 417, 418, 419, -1,
                                421, 420, 422, -1, 421, 422, 423, -1,
                                425, 424, 426, -1, 425, 426, 427, -1,
                                429, 428, 430, -1, 429, 430, 431, -1,
                                433, 432, 434, -1, 433, 434, 435, -1,
                                437, 436, 438, -1, 437, 438, 439, -1 ]
                            colorIndex [ 0, 0, 0, 0, 0, 0, 0, 0,
                                0, 0, 0, 0, 0, 0, 0, 0,
                                0, 0, 0, 0, 0, 0, 0, 0,
                                0, 0, 0, 0, 0, 0, 0, 0,
                                0, 0, 1, 1, 2, 2, 3, 3,
                                3, 3, 3, 3, 3, 3, 3, 3,
                                3, 3, 3, 3, 3, 3, 3, 3,
                                3, 3, 3, 3, 3, 3, 3, 3,
                                3, 3, 3, 3, 3, 3, 3, 3,
                                4, 4, 5, 5, 6, 6, 7, 7,
                                8, 8, 9, 9, 10, 10, 11, 11,
                                12, 12, 13, 13, 14, 14, 15, 15,
                                16, 16, 17, 17, 18, 18, 19, 19,
                                20, 20, 21, 21, 22, 22, 23, 23,
                                24, 24, 25, 25, 26, 26, 27, 27,
                                28, 28, 29, 29, 29, 29, 29, 29,
                                29, 29, 29, 29, 29, 29, 29, 29,
                                29, 29, 29, 29, 29, 29, 29, 29,
                                29, 29, 29, 29, 29, 29, 29, 29,
                                29, 29, 29, 29, 30, 30, 31, 31,
                                32, 32, 33, 33, 34, 34, 35, 35,
                                36, 36, 37, 37, 38, 38, 39, 39,
                                40, 40, 41, 41, 42, 42, 43, 43,
                                44, 44, 45, 45, 46, 46, 47, 47,
                                48, 48, 49, 49, 50, 50, 51, 51,
                                52, 52, 53, 53, 54, 54, 55, 55,
                                56, 56, 57, 57, 58, 58, 59, 59,
                                60, 60, 61, 61, 62, 62, 63, 63,
                                64, 64, 65, 65, 66, 66, 67, 67,
                                68, 68, 69, 69, 70, 70, 71, 71,
                                72, 72, 73, 73, 74, 74, 75, 75,
                                76, 76, 77, 77, 78, 78, 79, 79,
                                80, 80, 81, 81, 82, 82, 83, 83,
                                84, 84, 85, 85 ]
                            ccw TRUE
                            solid FALSE
                            convex TRUE
                            creaseAngle 0

                          }

                        }

                    } ]

                }

            }

        }

    }

}
