M48
; DRILL file {KiCad 7.0.8-7.0.8~ubuntu22.04.1} date Mon 23 Oct 2023 09:50:08 AM EDT
; FORMAT={-:-/ absolute / inch / decimal}
; #@! TF.CreationDate,2023-10-23T09:50:08-04:00
; #@! TF.GenerationSoftware,Kicad,Pcbnew,7.0.8-7.0.8~ubuntu22.04.1
; #@! TF.FileFunction,Plated,1,4,PTH
FMAT,2
INCH
; #@! TA.AperFunction,Plated,PTH,ViaDrill
T1C0.0080
; #@! TA.AperFunction,Plated,PTH,ViaDrill
T2C0.0150
; #@! TA.AperFunction,Plated,PTH,ComponentDrill
T3C0.0276
; #@! TA.AperFunction,Plated,PTH,ComponentDrill
T4C0.0315
; #@! TA.AperFunction,Plated,PTH,ComponentDrill
T5C0.0354
; #@! TA.AperFunction,Plated,PTH,ComponentDrill
T6C0.0394
; #@! TA.AperFunction,Plated,PTH,ComponentDrill
T7C0.0433
%
G90
G05
T1
X0.9039Y-2.9652
X0.9039Y-3.1152
X1.0039Y-2.9902
X1.0289Y-2.2302
X1.1039Y-2.5752
X1.1389Y-2.5352
X1.1489Y-2.9252
X1.1889Y-1.5902
X1.1889Y-1.7452
X1.1889Y-1.9102
X1.1953Y-1.2402
X1.1989Y-1.1852
X1.1989Y-2.9052
X1.2039Y-2.7902
X1.2539Y-2.8902
X1.275Y-2.5741
X1.2795Y-3.3268
X1.3139Y-2.5452
X1.3189Y-2.2736
X1.3539Y-2.7652
X1.3539Y-2.9902
X1.3589Y-1.4202
X1.3589Y-1.9102
X1.3639Y-1.5902
X1.3689Y-1.7402
X1.3839Y-1.4452
X1.3839Y-1.6952
X1.3839Y-1.8102
X1.3989Y-2.9052
X1.4089Y-1.5201
X1.4239Y-1.5352
X1.4239Y-2.9252
X1.45Y-2.6212
X1.4539Y-1.9802
X1.4539Y-3.1302
X1.4539Y-3.4402
X1.4567Y-2.7461
X1.4689Y-2.9152
X1.4739Y-1.8402
X1.4764Y-2.8248
X1.4989Y-3.4552
X1.5039Y-3.1252
X1.5039Y-3.1902
X1.514Y-2.5752
X1.5209Y-2.6202
X1.5289Y-1.7802
X1.5309Y-2.8802
X1.5339Y-1.5902
X1.5339Y-1.6802
X1.545Y-1.6213
X1.5539Y-3.1252
X1.5689Y-1.9592
X1.5789Y-3.1352
X1.5939Y-2.0102
X1.5945Y-2.8248
X1.5989Y-1.5952
X1.5989Y-3.3552
X1.6179Y-2.3942
X1.6289Y-3.1652
X1.6289Y-3.3152
X1.6343Y-1.5908
X1.6359Y-2.5492
X1.6634Y-2.7756
X1.6659Y-1.9152
X1.6789Y-2.9652
X1.6799Y-1.8122
X1.6819Y-1.9552
X1.6831Y-3.2185
X1.6889Y-3.4302
X1.7039Y-2.7402
X1.7039Y-3.1152
X1.7239Y-2.2402
X1.7618Y-1.6831
X1.7639Y-1.4102
X1.7639Y-1.4702
X1.7639Y-1.6502
X1.7639Y-1.7502
X1.7645Y-1.7157
X1.7739Y-2.9602
X1.7789Y-2.5502
X1.7939Y-2.9152
X1.8504Y-2.8248
X1.8639Y-3.4302
X1.8789Y-1.5902
X1.8839Y-1.8902
X1.8989Y-1.6552
X1.8989Y-1.7352
X1.9289Y-2.9602
X1.9289Y-3.2402
X1.9589Y-2.5502
X1.9939Y-1.8152
X2.0289Y-2.9652
X2.0374Y-2.1358
X2.0374Y-2.3031
X2.0374Y-2.4016
X2.0571Y-2.8248
X2.0571Y-3.2972
X2.0639Y-1.9102
X2.0669Y-3.4941
X2.0689Y-3.5852
X2.1016Y-1.9572
X2.1016Y-2.8282
X2.1039Y-3.9402
X2.1189Y-1.9102
X2.1239Y-1.8602
X2.1241Y-1.7
X2.1289Y-3.6152
X2.1339Y-2.5502
X2.1339Y-2.9252
X2.1439Y-1.8152
X2.1539Y-1.8352
X2.1539Y-3.6452
X2.1589Y-2.5252
X2.1753Y-1.8902
X2.1789Y-3.0402
X2.1939Y-1.8652
X2.1939Y-2.7802
X2.2039Y-3.8402
X2.2289Y-2.4792
X2.2289Y-2.9402
X2.2441Y-3.1791
X2.2475Y-1.7787
X2.2478Y-1.5213
X2.2509Y-1.5652
X2.2539Y-3.6452
X2.2939Y-2.8272
X2.2939Y-2.9402
X2.3289Y-3.0402
X2.3539Y-1.8802
X2.3539Y-1.9802
X2.3539Y-2.2502
X2.3539Y-3.6452
X2.3739Y-1.4752
X2.3988Y-1.6453
X2.3989Y-1.5652
X2.4311Y-3.2776
X2.4489Y-2.6002
X2.4499Y-2.9612
X2.4679Y-2.5732
X2.4789Y-1.6202
X2.4789Y-1.9302
X2.5029Y-1.6432
X2.5269Y-2.8772
X2.5289Y-2.7652
X2.5389Y-1.4752
X2.5539Y-3.9502
X2.5789Y-2.8902
X2.6149Y-2.9612
X2.6189Y-1.8502
X2.6239Y-1.5552
X2.6239Y-1.5852
X2.6239Y-2.5952
X2.6639Y-1.7252
X2.6639Y-2.0352
X2.6789Y-2.7402
X2.687Y-1.6535
X2.6889Y-3.2702
X2.6969Y-2.4409
X2.6989Y-3.9502
X2.7Y-2.9691
X2.7067Y-2.2441
X2.7067Y-2.3524
X2.7159Y-1.7432
X2.7199Y-1.6872
X2.7289Y-3.2402
X2.7489Y-1.8652
X2.7539Y-2.9052
X2.7756Y-2.7165
X2.7769Y-2.5662
X2.7939Y-1.4602
X2.8039Y-3.1152
X2.8239Y-1.7652
X2.8289Y-1.6852
X2.8439Y-1.5002
X2.8489Y-1.4452
X2.8546Y-1.9545
X2.8642Y-2.7362
X2.874Y-2.8642
X2.8839Y-1.8252
X2.8989Y-2.5852
X2.9039Y-3.1402
X2.925Y-2.7148
X2.9289Y-2.9152
X2.9289Y-3.0902
X2.9389Y-1.5552
X2.9689Y-1.5702
X3.0039Y-3.1152
X3.0198Y-2.556
X3.0289Y-2.1902
X3.0289Y-2.7402
X3.0289Y-2.9652
X3.0339Y-2.3002
X3.0639Y-1.5002
X3.0789Y-1.9552
X3.1239Y-1.6802
X3.1239Y-1.7602
X3.1249Y-2.8052
X3.1289Y-2.5802
X3.1299Y-3.1496
X3.175Y-2.9612
X3.2989Y-1.4702
X3.3039Y-2.5802
X3.3071Y-2.1358
X3.3639Y-2.0152
X3.3661Y-2.5394
X3.375Y-2.5941
X3.3789Y-1.4452
X3.3789Y-2.9652
X3.4089Y-2.0352
X3.4589Y-1.5302
T2
X0.9531Y-3.6343
X0.9539Y-2.5402
X0.9539Y-3.7152
X1.0039Y-0.9652
X1.0039Y-1.0402
X1.0039Y-1.1402
X1.0039Y-1.2652
X1.0039Y-1.3652
X1.0281Y-2.1144
X1.1289Y-1.4152
X1.2982Y-0.8709
X1.2989Y-0.8302
X1.3039Y-1.4152
X1.3289Y-2.5902
X1.3982Y-0.8759
X1.3989Y-0.8302
X1.4539Y-1.4152
X1.5539Y-0.8402
X1.5789Y-2.4402
X1.6089Y-3.6602
X1.6089Y-3.8202
X1.7039Y-1.4152
X1.7289Y-2.1152
X1.7789Y-0.8402
X1.9289Y-1.4152
X1.9789Y-0.8402
X2.0169Y-2.5994
X2.1539Y-0.8402
X2.1539Y-1.4152
X2.3533Y-2.1145
X2.3539Y-0.8402
X2.3631Y-2.4543
X2.4039Y-1.4152
X2.5089Y-3.1152
X2.5539Y-0.8402
X2.6789Y-1.4152
X2.7Y-2.5962
X2.7789Y-0.8402
X2.9789Y-0.8402
X3.1039Y-1.4152
X3.1189Y-1.9302
X3.1789Y-0.8402
X3.3039Y-0.8402
X3.3039Y-0.9902
X3.3039Y-1.1402
X3.3039Y-1.3152
X3.3039Y-1.4152
T4
X3.3039Y-1.6039
X3.3039Y-1.6827
X3.3039Y-1.7614
X3.3039Y-1.8402
X3.3827Y-1.6039
X3.3827Y-1.6827
X3.3827Y-1.7614
X3.3827Y-1.8402
T5
X1.1057Y-2.1951
X1.1057Y-2.3762
X1.1844Y-2.1754
X1.1844Y-2.3959
X1.2632Y-2.2344
X1.275Y-2.325
X1.7882Y-3.3199
X1.7882Y-3.501
X1.7925Y-2.2
X1.7925Y-2.3811
X1.8669Y-3.3002
X1.8669Y-3.5207
X1.8713Y-2.1803
X1.8713Y-2.4008
X1.9457Y-3.3593
X1.95Y-2.2394
X1.9575Y-3.4498
X1.9618Y-2.3299
X2.45Y-2.2
X2.45Y-2.3811
X2.5287Y-2.1803
X2.5287Y-2.4008
X2.55Y-3.325
X2.55Y-3.5061
X2.6075Y-2.2394
X2.6193Y-2.3299
X2.6287Y-3.3053
X2.6287Y-3.5258
X2.7075Y-3.3644
X2.7193Y-3.4549
X3.125Y-2.1939
X3.125Y-2.375
X3.2037Y-2.1742
X3.2037Y-2.3947
X3.2825Y-2.2333
X3.2943Y-2.3238
T6
X0.9189Y-3.9202
X0.9591Y-1.6207
X0.9591Y-1.7207
X0.9591Y-1.8207
X1.0189Y-3.9202
X1.0591Y-1.6207
X1.0591Y-1.7207
X1.0591Y-1.8207
X1.1189Y-3.9202
X1.2189Y-3.9202
X1.3189Y-3.9202
X1.4189Y-3.9202
X3.0039Y-3.8402
X3.1039Y-3.8402
X3.2039Y-3.8402
X3.3039Y-3.8402
T7
X1.1539Y-3.653
X1.2539Y-3.653
X1.3539Y-3.653
T3
G00X1.1805Y-2.1006
M15
G01X1.1569Y-2.1006
M16
G05
G00X1.1805Y-2.4707
M15
G01X1.1569Y-2.4707
M16
G05
G00X1.863Y-3.2254
M15
G01X1.8394Y-3.2254
M16
G05
G00X1.863Y-3.5955
M15
G01X1.8394Y-3.5955
M16
G05
G00X1.8673Y-2.1055
M15
G01X1.8437Y-2.1055
M16
G05
G00X1.8673Y-2.4756
M15
G01X1.8437Y-2.4756
M16
G05
G00X2.5248Y-2.1055
M15
G01X2.5012Y-2.1055
M16
G05
G00X2.5248Y-2.4756
M15
G01X2.5012Y-2.4756
M16
G05
G00X2.6248Y-3.2305
M15
G01X2.6012Y-3.2305
M16
G05
G00X2.6248Y-3.6006
M15
G01X2.6012Y-3.6006
M16
G05
G00X3.1998Y-2.0994
M15
G01X3.1762Y-2.0994
M16
G05
G00X3.1998Y-2.4695
M15
G01X3.1762Y-2.4695
M16
G05
T0
M30
