%TF.GenerationSoftware,KiCad,Pcbnew,7.0.8-7.0.8~ubuntu22.04.1*%
%TF.CreationDate,2023-10-23T09:50:04-04:00*%
%TF.ProjectId,iso-master-fmc,69736f2d-6d61-4737-9465-722d666d632e,rev?*%
%TF.SameCoordinates,Original*%
%TF.FileFunction,Soldermask,Top*%
%TF.FilePolarity,Negative*%
%FSLAX46Y46*%
G04 Gerber Fmt 4.6, Leading zero omitted, Abs format (unit mm)*
G04 Created by KiCad (PCBNEW 7.0.8-7.0.8~ubuntu22.04.1) date 2023-10-23 09:50:04*
%MOMM*%
%LPD*%
G01*
G04 APERTURE LIST*
G04 Aperture macros list*
%AMRoundRect*
0 Rectangle with rounded corners*
0 $1 Rounding radius*
0 $2 $3 $4 $5 $6 $7 $8 $9 X,Y pos of 4 corners*
0 Add a 4 corners polygon primitive as box body*
4,1,4,$2,$3,$4,$5,$6,$7,$8,$9,$2,$3,0*
0 Add four circle primitives for the rounded corners*
1,1,$1+$1,$2,$3*
1,1,$1+$1,$4,$5*
1,1,$1+$1,$6,$7*
1,1,$1+$1,$8,$9*
0 Add four rect primitives between the rounded corners*
20,1,$1+$1,$2,$3,$4,$5,0*
20,1,$1+$1,$4,$5,$6,$7,0*
20,1,$1+$1,$6,$7,$8,$9,0*
20,1,$1+$1,$8,$9,$2,$3,0*%
G04 Aperture macros list end*
%ADD10RoundRect,0.250000X0.475000X-0.337500X0.475000X0.337500X-0.475000X0.337500X-0.475000X-0.337500X0*%
%ADD11RoundRect,0.250000X-0.475000X0.337500X-0.475000X-0.337500X0.475000X-0.337500X0.475000X0.337500X0*%
%ADD12RoundRect,0.250000X-0.450000X0.350000X-0.450000X-0.350000X0.450000X-0.350000X0.450000X0.350000X0*%
%ADD13RoundRect,0.250000X0.450000X-0.350000X0.450000X0.350000X-0.450000X0.350000X-0.450000X-0.350000X0*%
%ADD14R,0.600000X2.200000*%
%ADD15C,1.270000*%
%ADD16C,0.640000*%
%ADD17C,2.700000*%
%ADD18RoundRect,0.250000X-0.350000X-0.450000X0.350000X-0.450000X0.350000X0.450000X-0.350000X0.450000X0*%
%ADD19RoundRect,0.250000X0.350000X0.450000X-0.350000X0.450000X-0.350000X-0.450000X0.350000X-0.450000X0*%
%ADD20R,1.408000X1.408000*%
%ADD21C,1.408000*%
%ADD22O,1.830000X1.230000*%
%ADD23R,1.700000X1.700000*%
%ADD24O,1.700000X1.700000*%
%ADD25R,1.350000X1.350000*%
%ADD26O,1.350000X1.350000*%
%ADD27R,1.905000X2.000000*%
%ADD28O,1.905000X2.000000*%
G04 APERTURE END LIST*
D10*
%TO.C,C9*%
X74395000Y-76987500D03*
X74395000Y-74912500D03*
%TD*%
D11*
%TO.C,C4*%
X75665000Y-62847500D03*
X75665000Y-64922500D03*
%TD*%
D12*
%TO.C,R38*%
X85500000Y-54250000D03*
X85500000Y-56250000D03*
%TD*%
D13*
%TO.C,R13*%
X58647000Y-59043000D03*
X58647000Y-57043000D03*
%TD*%
%TO.C,R31*%
X68750000Y-63000000D03*
X68750000Y-61000000D03*
%TD*%
%TO.C,R27*%
X74500000Y-72250000D03*
X74500000Y-70250000D03*
%TD*%
%TO.C,JP3*%
X70585000Y-82665000D03*
X70585000Y-80665000D03*
%TD*%
%TO.C,JP4*%
X42645000Y-53455000D03*
X42645000Y-51455000D03*
%TD*%
D14*
%TO.C,U3*%
X59690000Y-77245000D03*
X60960000Y-77245000D03*
X62230000Y-77245000D03*
X63500000Y-77245000D03*
X64770000Y-77245000D03*
X66040000Y-77245000D03*
X67310000Y-77245000D03*
X68580000Y-77245000D03*
X68580000Y-67945000D03*
X67310000Y-67945000D03*
X66040000Y-67945000D03*
X64770000Y-67945000D03*
X63500000Y-67945000D03*
X62230000Y-67945000D03*
X60960000Y-67945000D03*
X59690000Y-67945000D03*
%TD*%
%TO.C,U8*%
X25400000Y-77675000D03*
X26670000Y-77675000D03*
X27940000Y-77675000D03*
X29210000Y-77675000D03*
X30480000Y-77675000D03*
X31750000Y-77675000D03*
X33020000Y-77675000D03*
X34290000Y-77675000D03*
X34290000Y-68375000D03*
X33020000Y-68375000D03*
X31750000Y-68375000D03*
X30480000Y-68375000D03*
X29210000Y-68375000D03*
X27940000Y-68375000D03*
X26670000Y-68375000D03*
X25400000Y-68375000D03*
%TD*%
D15*
%TO.C,J1*%
X27345000Y-31965000D03*
X81725000Y-28915000D03*
D16*
X79300000Y-23200000D03*
X78030000Y-23200000D03*
X76760000Y-23200000D03*
X75490000Y-23200000D03*
X74220000Y-23200000D03*
X72950000Y-23200000D03*
X71680000Y-23200000D03*
X70410000Y-23200000D03*
X69140000Y-23200000D03*
X67870000Y-23200000D03*
X66600000Y-23200000D03*
X65330000Y-23200000D03*
X64060000Y-23200000D03*
X62790000Y-23200000D03*
X61520000Y-23200000D03*
X60250000Y-23200000D03*
X58980000Y-23200000D03*
X57710000Y-23200000D03*
X56440000Y-23200000D03*
X55170000Y-23200000D03*
X53900000Y-23200000D03*
X52630000Y-23200000D03*
X51360000Y-23200000D03*
X50090000Y-23200000D03*
X48820000Y-23200000D03*
X47550000Y-23200000D03*
X46280000Y-23200000D03*
X45010000Y-23200000D03*
X43740000Y-23200000D03*
X42470000Y-23200000D03*
X41200000Y-23200000D03*
X39930000Y-23200000D03*
X38660000Y-23200000D03*
X37390000Y-23200000D03*
X36120000Y-23200000D03*
X34850000Y-23200000D03*
X33580000Y-23200000D03*
X32310000Y-23200000D03*
X31040000Y-23200000D03*
X29770000Y-23200000D03*
X79300000Y-24470000D03*
X78030000Y-24470000D03*
X76760000Y-24470000D03*
X75490000Y-24470000D03*
X74220000Y-24470000D03*
X72950000Y-24470000D03*
X71680000Y-24470000D03*
X70410000Y-24470000D03*
X69140000Y-24470000D03*
X67870000Y-24470000D03*
X66600000Y-24470000D03*
X65330000Y-24470000D03*
X64060000Y-24470000D03*
X62790000Y-24470000D03*
X61520000Y-24470000D03*
X60250000Y-24470000D03*
X58980000Y-24470000D03*
X57710000Y-24470000D03*
X56440000Y-24470000D03*
X55170000Y-24470000D03*
X53900000Y-24470000D03*
X52630000Y-24470000D03*
X51360000Y-24470000D03*
X50090000Y-24470000D03*
X48820000Y-24470000D03*
X47550000Y-24470000D03*
X46280000Y-24470000D03*
X45010000Y-24470000D03*
X43740000Y-24470000D03*
X42470000Y-24470000D03*
X41200000Y-24470000D03*
X39930000Y-24470000D03*
X38660000Y-24470000D03*
X37390000Y-24470000D03*
X36120000Y-24470000D03*
X34850000Y-24470000D03*
X33580000Y-24470000D03*
X32310000Y-24470000D03*
X31040000Y-24470000D03*
X29770000Y-24470000D03*
X79300000Y-25740000D03*
X78030000Y-25740000D03*
X76760000Y-25740000D03*
X75490000Y-25740000D03*
X74220000Y-25740000D03*
X72950000Y-25740000D03*
X71680000Y-25740000D03*
X70410000Y-25740000D03*
X69140000Y-25740000D03*
X67870000Y-25740000D03*
X66600000Y-25740000D03*
X65330000Y-25740000D03*
X64060000Y-25740000D03*
X62790000Y-25740000D03*
X61520000Y-25740000D03*
X60250000Y-25740000D03*
X58980000Y-25740000D03*
X57710000Y-25740000D03*
X56440000Y-25740000D03*
X55170000Y-25740000D03*
X53900000Y-25740000D03*
X52630000Y-25740000D03*
X51360000Y-25740000D03*
X50090000Y-25740000D03*
X48820000Y-25740000D03*
X47550000Y-25740000D03*
X46280000Y-25740000D03*
X45010000Y-25740000D03*
X43740000Y-25740000D03*
X42470000Y-25740000D03*
X41200000Y-25740000D03*
X39930000Y-25740000D03*
X38660000Y-25740000D03*
X37390000Y-25740000D03*
X36120000Y-25740000D03*
X34850000Y-25740000D03*
X33580000Y-25740000D03*
X32310000Y-25740000D03*
X31040000Y-25740000D03*
X29770000Y-25740000D03*
X79300000Y-27010000D03*
X78030000Y-27010000D03*
X76760000Y-27010000D03*
X75490000Y-27010000D03*
X74220000Y-27010000D03*
X72950000Y-27010000D03*
X71680000Y-27010000D03*
X70410000Y-27010000D03*
X69140000Y-27010000D03*
X67870000Y-27010000D03*
X66600000Y-27010000D03*
X65330000Y-27010000D03*
X64060000Y-27010000D03*
X62790000Y-27010000D03*
X61520000Y-27010000D03*
X60250000Y-27010000D03*
X58980000Y-27010000D03*
X57710000Y-27010000D03*
X56440000Y-27010000D03*
X55170000Y-27010000D03*
X53900000Y-27010000D03*
X52630000Y-27010000D03*
X51360000Y-27010000D03*
X50090000Y-27010000D03*
X48820000Y-27010000D03*
X47550000Y-27010000D03*
X46280000Y-27010000D03*
X45010000Y-27010000D03*
X43740000Y-27010000D03*
X42470000Y-27010000D03*
X41200000Y-27010000D03*
X39930000Y-27010000D03*
X38660000Y-27010000D03*
X37390000Y-27010000D03*
X36120000Y-27010000D03*
X34850000Y-27010000D03*
X33580000Y-27010000D03*
X32310000Y-27010000D03*
X31040000Y-27010000D03*
X29770000Y-27010000D03*
X79300000Y-28280000D03*
X78030000Y-28280000D03*
X76760000Y-28280000D03*
X75490000Y-28280000D03*
X74220000Y-28280000D03*
X72950000Y-28280000D03*
X71680000Y-28280000D03*
X70410000Y-28280000D03*
X69140000Y-28280000D03*
X67870000Y-28280000D03*
X66600000Y-28280000D03*
X65330000Y-28280000D03*
X64060000Y-28280000D03*
X62790000Y-28280000D03*
X61520000Y-28280000D03*
X60250000Y-28280000D03*
X58980000Y-28280000D03*
X57710000Y-28280000D03*
X56440000Y-28280000D03*
X55170000Y-28280000D03*
X53900000Y-28280000D03*
X52630000Y-28280000D03*
X51360000Y-28280000D03*
X50090000Y-28280000D03*
X48820000Y-28280000D03*
X47550000Y-28280000D03*
X46280000Y-28280000D03*
X45010000Y-28280000D03*
X43740000Y-28280000D03*
X42470000Y-28280000D03*
X41200000Y-28280000D03*
X39930000Y-28280000D03*
X38660000Y-28280000D03*
X37390000Y-28280000D03*
X36120000Y-28280000D03*
X34850000Y-28280000D03*
X33580000Y-28280000D03*
X32310000Y-28280000D03*
X31040000Y-28280000D03*
X29770000Y-28280000D03*
X79300000Y-29550000D03*
X78030000Y-29550000D03*
X76760000Y-29550000D03*
X75490000Y-29550000D03*
X74220000Y-29550000D03*
X72950000Y-29550000D03*
X71680000Y-29550000D03*
X70410000Y-29550000D03*
X69140000Y-29550000D03*
X67870000Y-29550000D03*
X66600000Y-29550000D03*
X65330000Y-29550000D03*
X64060000Y-29550000D03*
X62790000Y-29550000D03*
X61520000Y-29550000D03*
X60250000Y-29550000D03*
X58980000Y-29550000D03*
X57710000Y-29550000D03*
X56440000Y-29550000D03*
X55170000Y-29550000D03*
X53900000Y-29550000D03*
X52630000Y-29550000D03*
X51360000Y-29550000D03*
X50090000Y-29550000D03*
X48820000Y-29550000D03*
X47550000Y-29550000D03*
X46280000Y-29550000D03*
X45010000Y-29550000D03*
X43740000Y-29550000D03*
X42470000Y-29550000D03*
X41200000Y-29550000D03*
X39930000Y-29550000D03*
X38660000Y-29550000D03*
X37390000Y-29550000D03*
X36120000Y-29550000D03*
X34850000Y-29550000D03*
X33580000Y-29550000D03*
X32310000Y-29550000D03*
X31040000Y-29550000D03*
X29770000Y-29550000D03*
X79300000Y-30820000D03*
X78030000Y-30820000D03*
X76760000Y-30820000D03*
X75490000Y-30820000D03*
X74220000Y-30820000D03*
X72950000Y-30820000D03*
X71680000Y-30820000D03*
X70410000Y-30820000D03*
X69140000Y-30820000D03*
X67870000Y-30820000D03*
X66600000Y-30820000D03*
X65330000Y-30820000D03*
X64060000Y-30820000D03*
X62790000Y-30820000D03*
X61520000Y-30820000D03*
X60250000Y-30820000D03*
X58980000Y-30820000D03*
X57710000Y-30820000D03*
X56440000Y-30820000D03*
X55170000Y-30820000D03*
X53900000Y-30820000D03*
X52630000Y-30820000D03*
X51360000Y-30820000D03*
X50090000Y-30820000D03*
X48820000Y-30820000D03*
X47550000Y-30820000D03*
X46280000Y-30820000D03*
X45010000Y-30820000D03*
X43740000Y-30820000D03*
X42470000Y-30820000D03*
X41200000Y-30820000D03*
X39930000Y-30820000D03*
X38660000Y-30820000D03*
X37390000Y-30820000D03*
X36120000Y-30820000D03*
X34850000Y-30820000D03*
X33580000Y-30820000D03*
X32310000Y-30820000D03*
X31040000Y-30820000D03*
X29770000Y-30820000D03*
X79300000Y-32090000D03*
X78030000Y-32090000D03*
X76760000Y-32090000D03*
X75490000Y-32090000D03*
X74220000Y-32090000D03*
X72950000Y-32090000D03*
X71680000Y-32090000D03*
X70410000Y-32090000D03*
X69140000Y-32090000D03*
X67870000Y-32090000D03*
X66600000Y-32090000D03*
X65330000Y-32090000D03*
X64060000Y-32090000D03*
X62790000Y-32090000D03*
X61520000Y-32090000D03*
X60250000Y-32090000D03*
X58980000Y-32090000D03*
X57710000Y-32090000D03*
X56440000Y-32090000D03*
X55170000Y-32090000D03*
X53900000Y-32090000D03*
X52630000Y-32090000D03*
X51360000Y-32090000D03*
X50090000Y-32090000D03*
X48820000Y-32090000D03*
X47550000Y-32090000D03*
X46280000Y-32090000D03*
X45010000Y-32090000D03*
X43740000Y-32090000D03*
X42470000Y-32090000D03*
X41200000Y-32090000D03*
X39930000Y-32090000D03*
X38660000Y-32090000D03*
X37390000Y-32090000D03*
X36120000Y-32090000D03*
X34850000Y-32090000D03*
X33580000Y-32090000D03*
X32310000Y-32090000D03*
X31040000Y-32090000D03*
X29770000Y-32090000D03*
X79300000Y-33360000D03*
X78030000Y-33360000D03*
X76760000Y-33360000D03*
X75490000Y-33360000D03*
X74220000Y-33360000D03*
X72950000Y-33360000D03*
X71680000Y-33360000D03*
X70410000Y-33360000D03*
X69140000Y-33360000D03*
X67870000Y-33360000D03*
X66600000Y-33360000D03*
X65330000Y-33360000D03*
X64060000Y-33360000D03*
X62790000Y-33360000D03*
X61520000Y-33360000D03*
X60250000Y-33360000D03*
X58980000Y-33360000D03*
X57710000Y-33360000D03*
X56440000Y-33360000D03*
X55170000Y-33360000D03*
X53900000Y-33360000D03*
X52630000Y-33360000D03*
X51360000Y-33360000D03*
X50090000Y-33360000D03*
X48820000Y-33360000D03*
X47550000Y-33360000D03*
X46280000Y-33360000D03*
X45010000Y-33360000D03*
X43740000Y-33360000D03*
X42470000Y-33360000D03*
X41200000Y-33360000D03*
X39930000Y-33360000D03*
X38660000Y-33360000D03*
X37390000Y-33360000D03*
X36120000Y-33360000D03*
X34850000Y-33360000D03*
X33580000Y-33360000D03*
X32310000Y-33360000D03*
X31040000Y-33360000D03*
X29770000Y-33360000D03*
X79300000Y-34630000D03*
X78030000Y-34630000D03*
X76760000Y-34630000D03*
X75490000Y-34630000D03*
X74220000Y-34630000D03*
X72950000Y-34630000D03*
X71680000Y-34630000D03*
X70410000Y-34630000D03*
X69140000Y-34630000D03*
X67870000Y-34630000D03*
X66600000Y-34630000D03*
X65330000Y-34630000D03*
X64060000Y-34630000D03*
X62790000Y-34630000D03*
X61520000Y-34630000D03*
X60250000Y-34630000D03*
X58980000Y-34630000D03*
X57710000Y-34630000D03*
X56440000Y-34630000D03*
X55170000Y-34630000D03*
X53900000Y-34630000D03*
X52630000Y-34630000D03*
X51360000Y-34630000D03*
X50090000Y-34630000D03*
X48820000Y-34630000D03*
X47550000Y-34630000D03*
X46280000Y-34630000D03*
X45010000Y-34630000D03*
X43740000Y-34630000D03*
X42470000Y-34630000D03*
X41200000Y-34630000D03*
X39930000Y-34630000D03*
X38660000Y-34630000D03*
X37390000Y-34630000D03*
X36120000Y-34630000D03*
X34850000Y-34630000D03*
X33580000Y-34630000D03*
X32310000Y-34630000D03*
X31040000Y-34630000D03*
X29770000Y-34630000D03*
%TD*%
D17*
%TO.C,H4*%
X83500000Y-85500000D03*
%TD*%
D12*
%TO.C,R35*%
X53500000Y-87750000D03*
X53500000Y-89750000D03*
%TD*%
D17*
%TO.C,H1*%
X86000000Y-30900000D03*
%TD*%
%TO.C,H2*%
X23000000Y-30900000D03*
%TD*%
D13*
%TO.C,JP5*%
X50265000Y-82665000D03*
X50265000Y-80665000D03*
%TD*%
D10*
%TO.C,C3*%
X22960000Y-78257500D03*
X22960000Y-76182500D03*
%TD*%
D18*
%TO.C,R25*%
X61750000Y-82000000D03*
X63750000Y-82000000D03*
%TD*%
D13*
%TO.C,JP1*%
X58647000Y-53709000D03*
X58647000Y-51709000D03*
%TD*%
D12*
%TO.C,R33*%
X72250000Y-90000000D03*
X72250000Y-92000000D03*
%TD*%
D13*
%TO.C,R42*%
X33500000Y-54250000D03*
X33500000Y-52250000D03*
%TD*%
%TO.C,R29*%
X40500000Y-72750000D03*
X40500000Y-70750000D03*
%TD*%
%TO.C,R32*%
X85500000Y-63500000D03*
X85500000Y-61500000D03*
%TD*%
%TO.C,R22*%
X44500000Y-82250000D03*
X44500000Y-80250000D03*
%TD*%
%TO.C,R40*%
X51750000Y-57250000D03*
X51750000Y-55250000D03*
%TD*%
%TO.C,R17*%
X41502000Y-89015000D03*
X41502000Y-87015000D03*
%TD*%
%TO.C,R15*%
X61695000Y-90285000D03*
X61695000Y-88285000D03*
%TD*%
%TO.C,R39*%
X72250000Y-87250000D03*
X72250000Y-85250000D03*
%TD*%
%TO.C,R18*%
X24865000Y-58535000D03*
X24865000Y-56535000D03*
%TD*%
D18*
%TO.C,R19*%
X57250000Y-82000000D03*
X59250000Y-82000000D03*
%TD*%
%TO.C,R26*%
X81000000Y-80000000D03*
X83000000Y-80000000D03*
%TD*%
D12*
%TO.C,R36*%
X33500000Y-61000000D03*
X33500000Y-63000000D03*
%TD*%
D14*
%TO.C,U6*%
X42545000Y-77245000D03*
X43815000Y-77245000D03*
X45085000Y-77245000D03*
X46355000Y-77245000D03*
X47625000Y-77245000D03*
X48895000Y-77245000D03*
X50165000Y-77245000D03*
X51435000Y-77245000D03*
X51435000Y-67945000D03*
X50165000Y-67945000D03*
X48895000Y-67945000D03*
X47625000Y-67945000D03*
X46355000Y-67945000D03*
X45085000Y-67945000D03*
X43815000Y-67945000D03*
X42545000Y-67945000D03*
%TD*%
D10*
%TO.C,C8*%
X40005000Y-65557500D03*
X40005000Y-63482500D03*
%TD*%
D12*
%TO.C,R37*%
X68750000Y-53750000D03*
X68750000Y-55750000D03*
%TD*%
D13*
%TO.C,R41*%
X53500000Y-85750000D03*
X53500000Y-83750000D03*
%TD*%
%TO.C,R21*%
X71500000Y-72750000D03*
X71500000Y-70750000D03*
%TD*%
%TO.C,R24*%
X32500000Y-83000000D03*
X32500000Y-81000000D03*
%TD*%
D17*
%TO.C,H3*%
X26950000Y-85500000D03*
%TD*%
D12*
%TO.C,R34*%
X51750000Y-59750000D03*
X51750000Y-61750000D03*
%TD*%
D11*
%TO.C,C2*%
X41375000Y-81262500D03*
X41375000Y-83337500D03*
%TD*%
D13*
%TO.C,R16*%
X42645000Y-58535000D03*
X42645000Y-56535000D03*
%TD*%
%TO.C,JP2*%
X75665000Y-55360000D03*
X75665000Y-53360000D03*
%TD*%
D14*
%TO.C,U4*%
X76835000Y-77040000D03*
X78105000Y-77040000D03*
X79375000Y-77040000D03*
X80645000Y-77040000D03*
X81915000Y-77040000D03*
X83185000Y-77040000D03*
X84455000Y-77040000D03*
X85725000Y-77040000D03*
X85725000Y-67740000D03*
X84455000Y-67740000D03*
X83185000Y-67740000D03*
X81915000Y-67740000D03*
X80645000Y-67740000D03*
X79375000Y-67740000D03*
X78105000Y-67740000D03*
X76835000Y-67740000D03*
%TD*%
D10*
%TO.C,C1*%
X58774000Y-64414500D03*
X58774000Y-62339500D03*
%TD*%
D19*
%TO.C,R20*%
X78250000Y-81250000D03*
X76250000Y-81250000D03*
%TD*%
D13*
%TO.C,R23*%
X37500000Y-72750000D03*
X37500000Y-70750000D03*
%TD*%
D10*
%TO.C,C7*%
X56615000Y-77622500D03*
X56615000Y-75547500D03*
%TD*%
D13*
%TO.C,R14*%
X75665000Y-60440000D03*
X75665000Y-58440000D03*
%TD*%
D10*
%TO.C,C12*%
X22960000Y-66954500D03*
X22960000Y-64879500D03*
%TD*%
D13*
%TO.C,JP6*%
X24865000Y-53705000D03*
X24865000Y-51705000D03*
%TD*%
D12*
%TO.C,R30*%
X32500000Y-86000000D03*
X32500000Y-88000000D03*
%TD*%
D20*
%TO.C,J13*%
X69070000Y-87755000D03*
D21*
X68770000Y-85455000D03*
X66770000Y-89555000D03*
X66770000Y-83955000D03*
X64770000Y-89055000D03*
X64770000Y-84455000D03*
D22*
X66370000Y-82055000D03*
X66370000Y-91455000D03*
%TD*%
D23*
%TO.C,J8*%
X26902000Y-41167000D03*
D24*
X24362000Y-41167000D03*
X26902000Y-43707000D03*
X24362000Y-43707000D03*
X26902000Y-46247000D03*
X24362000Y-46247000D03*
%TD*%
D25*
%TO.C,J2*%
X85920000Y-40740000D03*
D26*
X83920000Y-40740000D03*
X85920000Y-42740000D03*
X83920000Y-42740000D03*
X85920000Y-44740000D03*
X83920000Y-44740000D03*
X85920000Y-46740000D03*
X83920000Y-46740000D03*
%TD*%
D20*
%TO.C,J15*%
X49720000Y-87625000D03*
D21*
X49420000Y-85325000D03*
X47420000Y-89425000D03*
X47420000Y-83825000D03*
X45420000Y-88925000D03*
X45420000Y-84325000D03*
D22*
X47020000Y-81925000D03*
X47020000Y-91325000D03*
%TD*%
D20*
%TO.C,J11*%
X66530000Y-59180000D03*
D21*
X66230000Y-56880000D03*
X64230000Y-60980000D03*
X64230000Y-55380000D03*
X62230000Y-60480000D03*
X62230000Y-55880000D03*
D22*
X63830000Y-53480000D03*
X63830000Y-62880000D03*
%TD*%
D27*
%TO.C,U11*%
X29310000Y-92785000D03*
D28*
X31850000Y-92785000D03*
X34390000Y-92785000D03*
%TD*%
D23*
%TO.C,J4*%
X23341000Y-99572000D03*
D24*
X25881000Y-99572000D03*
X28421000Y-99572000D03*
X30961000Y-99572000D03*
X33501000Y-99572000D03*
X36041000Y-99572000D03*
%TD*%
D20*
%TO.C,J14*%
X49830000Y-59180000D03*
D21*
X49530000Y-56880000D03*
X47530000Y-60980000D03*
X47530000Y-55380000D03*
X45530000Y-60480000D03*
X45530000Y-55880000D03*
D22*
X47130000Y-53480000D03*
X47130000Y-62880000D03*
%TD*%
D20*
%TO.C,J12*%
X83675000Y-59025000D03*
D21*
X83375000Y-56725000D03*
X81375000Y-60825000D03*
X81375000Y-55225000D03*
X79375000Y-60325000D03*
X79375000Y-55725000D03*
D22*
X80975000Y-53325000D03*
X80975000Y-62725000D03*
%TD*%
D20*
%TO.C,J16*%
X32385000Y-59055000D03*
D21*
X32085000Y-56755000D03*
X30085000Y-60855000D03*
X30085000Y-55255000D03*
X28085000Y-60355000D03*
X28085000Y-55755000D03*
D22*
X29685000Y-53355000D03*
X29685000Y-62755000D03*
%TD*%
D23*
%TO.C,J3*%
X83920000Y-97540000D03*
D24*
X81380000Y-97540000D03*
X78840000Y-97540000D03*
X76300000Y-97540000D03*
%TD*%
M02*
